﻿<?xml version="1.0" encoding="utf-8"?>
<svg version="1.1" xmlns:xlink="http://www.w3.org/1999/xlink" width="1593px" height="473px" xmlns="http://www.w3.org/2000/svg">
  <g transform="matrix(1 0 0 1 -45 -321 )">
    <path d="M 46 322  L 1637 322  L 1637 793  L 46 793  L 46 322  Z " fill-rule="nonzero" fill="#ffffff" stroke="none" fill-opacity="0" />
    <path d="M 45.5 321.5  L 1637.5 321.5  L 1637.5 793.5  L 45.5 793.5  L 45.5 321.5  Z " stroke-width="1" stroke-dasharray="9,4" stroke="#cccccc" fill="none" stroke-dashoffset="0.5" />
  </g>
</svg>