﻿<?xml version="1.0" encoding="utf-8"?>
<svg version="1.1" xmlns:xlink="http://www.w3.org/1999/xlink" width="591px" height="34px" xmlns="http://www.w3.org/2000/svg">
  <g transform="matrix(1 0 0 1 -942 -255 )">
    <path d="M 0 32.4719101123595  L 0 25.1195431939589  L 0 1.52808988764048  C 0 0.672359550561794  3.02372093023234 0  6.87209302325584 0  L 173.384858044164 0  L 265.090909090912 0  L 322.533123028391 0  L 511.152468800869 0  L 527.995899772211 0  L 584.127906976744 0  C 587.976279069768 0  591 0.672359550561794  591 1.52808988764048  L 591 32.4719101123595  C 591 33.3276404494382  587.976279069768 34  584.127906976744 34  L 534.457858769932 34  L 439.682460136672 34  L 6.87209302325584 34  C 3.02372093023234 34  0 33.3276404494382  0 32.4719101123595  Z " fill-rule="nonzero" fill="#ffff80" stroke="none" fill-opacity="0.52156862745098" transform="matrix(1 0 0 1 942 255 )" />
  </g>
</svg>