﻿<?xml version="1.0" encoding="utf-8"?>
<svg version="1.1" xmlns:xlink="http://www.w3.org/1999/xlink" width="122px" height="30px" xmlns="http://www.w3.org/2000/svg">
  <defs>
    <mask fill="white" id="clip2527">
      <path d="M 0 30  L 0 2.83018867924528  C 0 1.24528301886792  2.39642857142862 0  5.44642857142857 0  L 79.9999999999995 0  L 116.553571428571 0  C 119.603571428571 0  122 1.24528301886792  122 2.83018867924528  L 122 21.5094339622642  L 122 30  L 90.3999999999978 30  L 0 30  Z " fill-rule="evenodd" />
    </mask>
  </defs>
  <g transform="matrix(1 0 0 1 -10 -173 )">
    <path d="M 0 30  L 0 2.83018867924528  C 0 1.24528301886792  2.39642857142862 0  5.44642857142857 0  L 79.9999999999995 0  L 116.553571428571 0  C 119.603571428571 0  122 1.24528301886792  122 2.83018867924528  L 122 21.5094339622642  L 122 30  L 90.3999999999978 30  L 0 30  Z " fill-rule="nonzero" fill="#ffffff" stroke="none" transform="matrix(1 0 0 1 10 173 )" />
    <path d="M 0 30  L 0 2.83018867924528  C 0 1.24528301886792  2.39642857142862 0  5.44642857142857 0  L 79.9999999999995 0  L 116.553571428571 0  C 119.603571428571 0  122 1.24528301886792  122 2.83018867924528  L 122 21.5094339622642  L 122 30  L 90.3999999999978 30  L 0 30  Z " stroke-width="2" stroke="#7f7f7f" fill="none" transform="matrix(1 0 0 1 10 173 )" mask="url(#clip2527)" />
  </g>
</svg>