﻿<?xml version="1.0" encoding="utf-8"?>
<svg version="1.1" xmlns:xlink="http://www.w3.org/1999/xlink" width="381px" height="179px" xmlns="http://www.w3.org/2000/svg">
  <defs>
    <mask fill="white" id="clip2529">
      <path d="M 0 166.698113207547  L 0 4.30188679245283  C 0 1.89283018867924  1.39380042462844 0  3.16772823779193 0  L 369.832271762208 0  C 371.606199575372 0  373 1.89283018867924  373 4.30188679245283  L 373 166.698113207547  C 373 169.107169811321  371.606199575372 171  369.832271762208 171  L 76.2894550601547 171  L 3.16772823779193 171  C 1.39380042462844 171  0 169.107169811321  0 166.698113207547  Z " fill-rule="evenodd" />
    </mask>
    <filter x="63px" y="128px" width="381px" height="179px" filterUnits="userSpaceOnUse" id="filter2530">
      <feOffset dx="0" dy="0" in="SourceAlpha" result="shadowOffsetInner" />
      <feGaussianBlur stdDeviation="2" in="shadowOffsetInner" result="shadowGaussian" />
      <feComposite in2="shadowGaussian" operator="atop" in="SourceAlpha" result="shadowComposite" />
      <feColorMatrix type="matrix" values="0 0 0 0 0.850980392156863  0 0 0 0 0.850980392156863  0 0 0 0 0.850980392156863  0 0 0 0.988235294117647 0  " in="shadowComposite" />
    </filter>
    <g id="widget2531">
      <path d="M 0 166.698113207547  L 0 4.30188679245283  C 0 1.89283018867924  1.39380042462844 0  3.16772823779193 0  L 369.832271762208 0  C 371.606199575372 0  373 1.89283018867924  373 4.30188679245283  L 373 166.698113207547  C 373 169.107169811321  371.606199575372 171  369.832271762208 171  L 76.2894550601547 171  L 3.16772823779193 171  C 1.39380042462844 171  0 169.107169811321  0 166.698113207547  Z " fill-rule="nonzero" fill="#ffffff" stroke="none" transform="matrix(1 0 0 1 67 132 )" />
      <path d="M 0 166.698113207547  L 0 4.30188679245283  C 0 1.89283018867924  1.39380042462844 0  3.16772823779193 0  L 369.832271762208 0  C 371.606199575372 0  373 1.89283018867924  373 4.30188679245283  L 373 166.698113207547  C 373 169.107169811321  371.606199575372 171  369.832271762208 171  L 76.2894550601547 171  L 3.16772823779193 171  C 1.39380042462844 171  0 169.107169811321  0 166.698113207547  Z " stroke-width="2" stroke="#d9d9d9" fill="none" transform="matrix(1 0 0 1 67 132 )" mask="url(#clip2529)" />
    </g>
  </defs>
  <g transform="matrix(1 0 0 1 -63 -128 )">
    <use xlink:href="#widget2531" filter="url(#filter2530)" />
    <use xlink:href="#widget2531" />
  </g>
</svg>