﻿<?xml version="1.0" encoding="utf-8"?>
<svg version="1.1" xmlns:xlink="http://www.w3.org/1999/xlink" width="125px" height="33px" xmlns="http://www.w3.org/2000/svg">
  <g transform="matrix(1 0 0 1 -66 -162 )">
    <path d="M 0 33  L 0 0  L 38.3665277134489 0  L 125 0  L 125 33  L 0 33  Z " fill-rule="nonzero" fill="#ffffff" stroke="none" fill-opacity="0.898039215686275" transform="matrix(1 0 0 1 66 162 )" />
  </g>
</svg>