﻿<?xml version="1.0" encoding="utf-8"?>
<svg version="1.1" xmlns:xlink="http://www.w3.org/1999/xlink" width="125px" height="33px" xmlns="http://www.w3.org/2000/svg">
  <g transform="matrix(1 0 0 1 -317 -231 )">
    <path d="M 318 232  L 441 232  L 441 263  L 318 263  L 318 232  Z " fill-rule="nonzero" fill="#ffffff" stroke="none" fill-opacity="0.901960784313726" />
  </g>
</svg>