﻿<?xml version="1.0" encoding="utf-8"?>
<svg version="1.1" xmlns:xlink="http://www.w3.org/1999/xlink" width="12px" height="12px" viewBox="336 237.5  12 12" xmlns="http://www.w3.org/2000/svg">
  <path d="M 336.5 238  L 347.5 238  L 347.5 249  L 336.5 249  L 336.5 238  Z " fill-rule="nonzero" fill="#ffffff" stroke="none" />
  <path d="M 336.5 238  L 347.5 238  L 347.5 249  L 336.5 249  L 336.5 238  Z " stroke-width="1" stroke="#797979" fill="none" />
  <path d="M 338.571428571429 243.5  L 341.142857142857 246.071428571429  " stroke-width="2.57142857142857" stroke="#797979" fill="none" />
  <path d="M 341.142857142857 246.071428571429  L 345.428571428571 240.071428571429  " stroke-width="2.57142857142857" stroke="#797979" fill="none" />
</svg>