﻿<?xml version="1.0" encoding="utf-8"?>
<svg version="1.1" xmlns:xlink="http://www.w3.org/1999/xlink" width="12px" height="12px" viewBox="336 206.5  12 12" xmlns="http://www.w3.org/2000/svg">
  <path d="M 336.5 207  L 347.5 207  L 347.5 218  L 336.5 218  L 336.5 207  Z " fill-rule="nonzero" fill="#f0f0f0" stroke="none" />
  <path d="M 336.5 207  L 347.5 207  L 347.5 218  L 336.5 218  L 336.5 207  Z " stroke-width="1" stroke="#797979" fill="none" />
  <path d="M 338.571428571429 212.5  L 341.142857142857 215.071428571429  " stroke-width="2.57142857142857" stroke="#797979" fill="none" />
  <path d="M 341.142857142857 215.071428571429  L 345.428571428571 209.071428571429  " stroke-width="2.57142857142857" stroke="#797979" fill="none" />
</svg>