﻿<?xml version="1.0" encoding="utf-8"?>
<svg version="1.1" xmlns:xlink="http://www.w3.org/1999/xlink" width="12px" height="12px" viewBox="80 238.5  12 12" xmlns="http://www.w3.org/2000/svg">
  <path d="M 80.5 239  L 91.5 239  L 91.5 250  L 80.5 250  L 80.5 239  Z " fill-rule="nonzero" fill="#f0f0f0" stroke="none" />
  <path d="M 80.5 239  L 91.5 239  L 91.5 250  L 80.5 250  L 80.5 239  Z " stroke-width="1" stroke="#797979" fill="none" />
  <path d="M 82.5714285714286 244.5  L 85.1428571428571 247.071428571429  " stroke-width="2.57142857142857" stroke="#797979" fill="none" />
  <path d="M 85.1428571428571 247.071428571429  L 89.4285714285714 241.071428571429  " stroke-width="2.57142857142857" stroke="#797979" fill="none" />
</svg>