﻿<?xml version="1.0" encoding="utf-8"?>
<svg version="1.1" xmlns:xlink="http://www.w3.org/1999/xlink" width="12px" height="12px" viewBox="80 205.5  12 12" xmlns="http://www.w3.org/2000/svg">
  <path d="M 80.5 206  L 91.5 206  L 91.5 217  L 80.5 217  L 80.5 206  Z " fill-rule="nonzero" fill="#ffffff" stroke="none" />
  <path d="M 80.5 206  L 91.5 206  L 91.5 217  L 80.5 217  L 80.5 206  Z " stroke-width="1" stroke="#797979" fill="none" />
  <path d="M 82.5714285714286 211.5  L 85.1428571428571 214.071428571429  " stroke-width="2.57142857142857" stroke="#797979" fill="none" />
  <path d="M 85.1428571428571 214.071428571429  L 89.4285714285714 208.071428571429  " stroke-width="2.57142857142857" stroke="#797979" fill="none" />
</svg>