﻿<?xml version="1.0" encoding="utf-8"?>
<svg version="1.1" xmlns:xlink="http://www.w3.org/1999/xlink" width="350px" height="31px" xmlns="http://www.w3.org/2000/svg">
  <defs>
    <mask fill="white" id="clip2484">
      <path d="M 0 27  L 0 4  C 0 1.75999999999999  1.89538461538461 0  4.30769230769231 0  L 345.692307692308 0  C 348.104615384615 0  350 1.75999999999999  350 4  L 350 27  C 350 29.24  348.104615384615 31  345.692307692308 31  L 71.0769230769231 31  L 4.30769230769231 31  C 1.89538461538461 31  0 29.24  0 27  Z " fill-rule="evenodd" />
    </mask>
  </defs>
  <g transform="matrix(1 0 0 1 -1266 -171 )">
    <path d="M 0 27  L 0 4  C 0 1.75999999999999  1.89538461538461 0  4.30769230769231 0  L 345.692307692308 0  C 348.104615384615 0  350 1.75999999999999  350 4  L 350 27  C 350 29.24  348.104615384615 31  345.692307692308 31  L 71.0769230769231 31  L 4.30769230769231 31  C 1.89538461538461 31  0 29.24  0 27  Z " fill-rule="nonzero" fill="#ffffff" stroke="none" transform="matrix(1 0 0 1 1266 171 )" />
    <path d="M 0 27  L 0 4  C 0 1.75999999999999  1.89538461538461 0  4.30769230769231 0  L 345.692307692308 0  C 348.104615384615 0  350 1.75999999999999  350 4  L 350 27  C 350 29.24  348.104615384615 31  345.692307692308 31  L 71.0769230769231 31  L 4.30769230769231 31  C 1.89538461538461 31  0 29.24  0 27  Z " stroke-width="2" stroke="#dcdee2" fill="none" transform="matrix(1 0 0 1 1266 171 )" mask="url(#clip2484)" />
  </g>
</svg>