﻿<?xml version="1.0" encoding="utf-8"?>
<svg version="1.1" xmlns:xlink="http://www.w3.org/1999/xlink" width="40px" height="50px" xmlns="http://www.w3.org/2000/svg">
  <defs>
    <mask fill="white" id="clip2458">
      <path d="M 30 14  C 30 18.4449196728755  28.2218420191516 22.0995469098184  25.7193619761953 25.6664389899889  C 22.5918639157736 30.1241960433832  18.3330481962747 34.4449196728755  15 40  C 9 30  0 24  0 14  C 0 8.79999999999995  3 0  15 0  C 24.8699264301384 0  28.6513873767553 5.95316625055443  29.6828665284503 10.9599657952239  C 29.7243410112695 11.1612829244681  29.7613694796555 11.3610700217532  29.794168959142 11.5588785676428  C 29.8369667241299 11.8169852142153  29.8725642847907 12.0717232129484  29.9014437812166 12.3220961409852  C 29.9692258403461 12.9097377107096  30 13.4733333511471  30 14  Z " fill-rule="evenodd" />
    </mask>
    <filter x="331px" y="634px" width="40px" height="50px" filterUnits="userSpaceOnUse" id="filter2459">
      <feOffset dx="1" dy="1" in="SourceAlpha" result="shadowOffsetInner" />
      <feGaussianBlur stdDeviation="2.5" in="shadowOffsetInner" result="shadowGaussian" />
      <feComposite in2="shadowGaussian" operator="atop" in="SourceAlpha" result="shadowComposite" />
      <feColorMatrix type="matrix" values="0 0 0 0 0  0 0 0 0 0  0 0 0 0 0  0 0 0 0.698039215686274 0  " in="shadowComposite" />
    </filter>
    <g id="widget2460">
      <path d="M 30 14  C 30 18.4449196728755  28.2218420191516 22.0995469098184  25.7193619761953 25.6664389899889  C 22.5918639157736 30.1241960433832  18.3330481962747 34.4449196728755  15 40  C 9 30  0 24  0 14  C 0 8.79999999999995  3 0  15 0  C 24.8699264301384 0  28.6513873767553 5.95316625055443  29.6828665284503 10.9599657952239  C 29.7243410112695 11.1612829244681  29.7613694796555 11.3610700217532  29.794168959142 11.5588785676428  C 29.8369667241299 11.8169852142153  29.8725642847907 12.0717232129484  29.9014437812166 12.3220961409852  C 29.9692258403461 12.9097377107096  30 13.4733333511471  30 14  Z " fill-rule="nonzero" fill="#009dd9" stroke="none" transform="matrix(1 0 0 1 335 638 )" />
      <path d="M 30 14  C 30 18.4449196728755  28.2218420191516 22.0995469098184  25.7193619761953 25.6664389899889  C 22.5918639157736 30.1241960433832  18.3330481962747 34.4449196728755  15 40  C 9 30  0 24  0 14  C 0 8.79999999999995  3 0  15 0  C 24.8699264301384 0  28.6513873767553 5.95316625055443  29.6828665284503 10.9599657952239  C 29.7243410112695 11.1612829244681  29.7613694796555 11.3610700217532  29.794168959142 11.5588785676428  C 29.8369667241299 11.8169852142153  29.8725642847907 12.0717232129484  29.9014437812166 12.3220961409852  C 29.9692258403461 12.9097377107096  30 13.4733333511471  30 14  Z " stroke-width="2" stroke="#ffffff" fill="none" transform="matrix(1 0 0 1 335 638 )" mask="url(#clip2458)" />
    </g>
  </defs>
  <g transform="matrix(1 0 0 1 -331 -634 )">
    <use xlink:href="#widget2460" filter="url(#filter2459)" />
    <use xlink:href="#widget2460" />
  </g>
</svg>