﻿<?xml version="1.0" encoding="utf-8"?>
<svg version="1.1" xmlns:xlink="http://www.w3.org/1999/xlink" width="41px" height="30px" xmlns="http://www.w3.org/2000/svg">
  <defs>
    <mask fill="white" id="clip2464">
      <path d="M 0 30  L 0 0  L 41 0  L 41 30  L 26.4811035525322 30  L 25.169491525425 30  L 19.0816326530627 30  L 0 30  Z " fill-rule="evenodd" />
    </mask>
  </defs>
  <g transform="matrix(1 0 0 1 -435 -70 )">
    <path d="M 0 30  L 0 0  L 41 0  L 41 30  L 26.4811035525322 30  L 25.169491525425 30  L 19.0816326530627 30  L 0 30  Z " fill-rule="nonzero" fill="#ffffff" stroke="none" transform="matrix(1 0 0 1 435 70 )" />
    <path d="M 0 30  L 0 0  L 41 0  L 41 30  L 26.4811035525322 30  L 25.169491525425 30  L 19.0816326530627 30  L 0 30  Z " stroke-width="4" stroke="#797979" fill="none" transform="matrix(1 0 0 1 435 70 )" mask="url(#clip2464)" />
  </g>
</svg>