﻿<?xml version="1.0" encoding="utf-8"?>
<svg version="1.1" xmlns:xlink="http://www.w3.org/1999/xlink" width="12px" height="32px" xmlns="http://www.w3.org/2000/svg">
  <g transform="matrix(1 0 0 1 -29 -345 )">
    <path d="M 0 28  L 0 20.6056338028169  L 0 15.7450980392157  L 0 4  C 0 1.75999999999999  0.0718367346938779 0  0.163265306122448 0  L 2.55411255411251 0  L 5.30277185501136 0  L 11.8367346938776 0  C 11.9281632653061 0  12 1.75999999999999  12 4  L 12 28  C 12 30.24  11.9281632653061 32  11.8367346938776 32  L 9.53030303030314 32  L 5.93815708101422 32  L 0.163265306122448 32  C 0.0718367346938779 32  0 30.24  0 28  Z " fill-rule="nonzero" fill="#ffffff" stroke="none" transform="matrix(1 0 0 1 29 345 )" />
  </g>
</svg>