﻿<?xml version="1.0" encoding="utf-8"?>
<svg version="1.1" xmlns:xlink="http://www.w3.org/1999/xlink" width="2px" height="180px" xmlns="http://www.w3.org/2000/svg">
  <g transform="matrix(1 0 0 1 -447 -233 )">
    <path d="M 447.5 233  L 447.5 412  " stroke-width="1" stroke="#797979" fill="none" />
  </g>
</svg>