﻿<?xml version="1.0" encoding="utf-8"?>
<svg version="1.1" xmlns:xlink="http://www.w3.org/1999/xlink" width="111px" height="30px" xmlns="http://www.w3.org/2000/svg">
  <defs>
    <mask fill="white" id="clip2493">
      <path d="M 0 30  L 0 0  L 26.9841269841281 0  L 29.335714285712 0  L 74.2424242424264 0  L 111 0  L 111 30  L 39.1666666666667 30  L 0 30  Z " fill-rule="evenodd" />
    </mask>
  </defs>
  <g transform="matrix(1 0 0 1 -540 -323 )">
    <path d="M 0 30  L 0 0  L 26.9841269841281 0  L 29.335714285712 0  L 74.2424242424264 0  L 111 0  L 111 30  L 39.1666666666667 30  L 0 30  Z " fill-rule="nonzero" fill="#ffffff" stroke="none" transform="matrix(1 0 0 1 540 323 )" />
    <path d="M 0 30  L 0 0  L 26.9841269841281 0  L 29.335714285712 0  L 74.2424242424264 0  L 111 0  L 111 30  L 39.1666666666667 30  L 0 30  Z " stroke-width="2" stroke="#d7d7d7" fill="none" transform="matrix(1 0 0 1 540 323 )" mask="url(#clip2493)" />
  </g>
</svg>