﻿<?xml version="1.0" encoding="utf-8"?>
<svg version="1.1" xmlns:xlink="http://www.w3.org/1999/xlink" width="25px" height="7px" xmlns="http://www.w3.org/2000/svg">
  <g transform="matrix(1 0 0 1 -1516 -472 )">
    <path d="M 6.32102272727273 0.510416666666666  C 6.65246212121212 0.850694444444441  6.81818181818182 1.26388888888889  6.81818181818182 1.75  L 6.81818181818182 5.25  C 6.81818181818182 5.73611111111111  6.65246212121212 6.14930555555555  6.32102272727273 6.48958333333333  C 5.98958333333333 6.82986111111111  5.58712121212121 7  5.11363636363636 7  L 1.70454545454545 7  C 1.23106060606061 7  0.828598484848485 6.82986111111111  0.497159090909091 6.48958333333333  C 0.165719696969697 6.14930555555555  0 5.73611111111111  0 5.25  L 0 1.75  C 0 1.26388888888889  0.165719696969697 0.850694444444441  0.497159090909091 0.510416666666666  C 0.828598484848485 0.170138888888888  1.23106060606061 0  1.70454545454545 0  L 5.11363636363636 0  C 5.58712121212121 0  5.98958333333333 0.170138888888888  6.32102272727273 0.510416666666666  Z M 15.4119318181818 0.510416666666666  C 15.7433712121212 0.850694444444441  15.9090909090909 1.26388888888889  15.9090909090909 1.75  L 15.9090909090909 5.25  C 15.9090909090909 5.73611111111111  15.7433712121212 6.14930555555555  15.4119318181818 6.48958333333333  C 15.0804924242424 6.82986111111111  14.6780303030303 7  14.2045454545455 7  L 10.7954545454545 7  C 10.3219696969697 7  9.91950757575758 6.82986111111111  9.58806818181818 6.48958333333333  C 9.25662878787879 6.14930555555555  9.09090909090909 5.73611111111111  9.09090909090909 5.25  L 9.09090909090909 1.75  C 9.09090909090909 1.26388888888889  9.25662878787879 0.850694444444441  9.58806818181818 0.510416666666666  C 9.91950757575758 0.170138888888888  10.3219696969697 0  10.7954545454545 0  L 14.2045454545455 0  C 14.6780303030303 0  15.0804924242424 0.170138888888888  15.4119318181818 0.510416666666666  Z M 24.5028409090909 0.510416666666666  C 24.8342803030303 0.850694444444441  25 1.26388888888889  25 1.75  L 25 5.25  C 25 5.73611111111111  24.8342803030303 6.14930555555555  24.5028409090909 6.48958333333333  C 24.1714015151515 6.82986111111111  23.7689393939394 7  23.2954545454545 7  L 19.8863636363636 7  C 19.4128787878788 7  19.0104166666667 6.82986111111111  18.6789772727273 6.48958333333333  C 18.3475378787879 6.14930555555555  18.1818181818182 5.73611111111111  18.1818181818182 5.25  L 18.1818181818182 1.75  C 18.1818181818182 1.26388888888889  18.3475378787879 0.850694444444441  18.6789772727273 0.510416666666666  C 19.0104166666667 0.170138888888888  19.4128787878788 0  19.8863636363636 0  L 23.2954545454545 0  C 23.7689393939394 0  24.1714015151515 0.170138888888888  24.5028409090909 0.510416666666666  Z " fill-rule="nonzero" fill="#7f7f7f" stroke="none" transform="matrix(1 0 0 1 1516 472 )" />
  </g>
</svg>