﻿<?xml version="1.0" encoding="utf-8"?>
<svg version="1.1" xmlns:xlink="http://www.w3.org/1999/xlink" width="1584px" height="467px" xmlns="http://www.w3.org/2000/svg">
  <g transform="matrix(1 0 0 1 -25 -93 )">
    <path d="M 26 94  L 1608 94  L 1608 559  L 26 559  L 26 94  Z " fill-rule="nonzero" fill="#ffffff" stroke="none" fill-opacity="0" />
    <path d="M 25.5 93.5  L 1608.5 93.5  L 1608.5 559.5  L 25.5 559.5  L 25.5 93.5  Z " stroke-width="1" stroke-dasharray="9,4" stroke="#cccccc" fill="none" stroke-dashoffset="0.5" />
  </g>
</svg>