﻿<?xml version="1.0" encoding="utf-8"?>
<svg version="1.1" xmlns:xlink="http://www.w3.org/1999/xlink" width="2px" height="363px" xmlns="http://www.w3.org/2000/svg">
  <g transform="matrix(1 0 0 1 -322 -156 )">
    <path d="M 322.5 156  L 322.5 518  " stroke-width="1" stroke="#949494" fill="none" />
  </g>
</svg>