﻿<?xml version="1.0" encoding="utf-8"?>
<svg version="1.1" xmlns:xlink="http://www.w3.org/1999/xlink" width="200px" height="108px" xmlns="http://www.w3.org/2000/svg">
  <g transform="matrix(1 0 0 1 -864 -93 )">
    <path d="M 0 103  L 0 5  C 0 2.19999999999999  2.20000000000005 0  5 0  L 195 0  C 197.8 0  200 2.19999999999999  200 5  L 200 89  L 200 103  C 200 105.8  197.8 108  195 108  L 160.259259259262 108  L 5 108  C 2.20000000000005 108  0 105.8  0 103  Z " fill-rule="nonzero" fill="#000000" stroke="none" fill-opacity="0.498039215686275" transform="matrix(1 0 0 1 864 93 )" />
  </g>
</svg>