﻿<?xml version="1.0" encoding="utf-8"?>
<svg version="1.1" xmlns:xlink="http://www.w3.org/1999/xlink" width="224px" height="33px" xmlns="http://www.w3.org/2000/svg">
  <g transform="matrix(1 0 0 1 -73 -164 )">
    <path d="M 74 165  L 296 165  L 296 196  L 74 196  L 74 165  Z " fill-rule="nonzero" fill="#108ee9" stroke="none" />
  </g>
</svg>