﻿<?xml version="1.0" encoding="utf-8"?>
<svg version="1.1" xmlns:xlink="http://www.w3.org/1999/xlink" width="12px" height="12px" viewBox="98 240.5  12 12" xmlns="http://www.w3.org/2000/svg">
  <path d="M 98.5 241  L 109.5 241  L 109.5 252  L 98.5 252  L 98.5 241  Z " fill-rule="nonzero" fill="#ffffff" stroke="none" />
  <path d="M 98.5 241  L 109.5 241  L 109.5 252  L 98.5 252  L 98.5 241  Z " stroke-width="1" stroke="#797979" fill="none" />
</svg>