﻿<?xml version="1.0" encoding="utf-8"?>
<svg version="1.1" xmlns:xlink="http://www.w3.org/1999/xlink" width="12px" height="12px" viewBox="468 469.5  12 12" xmlns="http://www.w3.org/2000/svg">
  <path d="M 468.5 470  L 479.5 470  L 479.5 481  L 468.5 481  L 468.5 470  Z " fill-rule="nonzero" fill="#f0f0f0" stroke="none" />
  <path d="M 468.5 470  L 479.5 470  L 479.5 481  L 468.5 481  L 468.5 470  Z " stroke-width="1" stroke="#797979" fill="none" />
  <path d="M 470.571428571429 475.5  L 473.142857142857 478.071428571429  " stroke-width="2.57142857142857" stroke="#797979" fill="none" />
  <path d="M 473.142857142857 478.071428571429  L 477.428571428571 472.071428571429  " stroke-width="2.57142857142857" stroke="#797979" fill="none" />
</svg>