﻿<?xml version="1.0" encoding="utf-8"?>
<svg version="1.1" xmlns:xlink="http://www.w3.org/1999/xlink" width="12px" height="12px" viewBox="596 404.5  12 12" xmlns="http://www.w3.org/2000/svg">
  <path d="M 596.5 405  L 607.5 405  L 607.5 416  L 596.5 416  L 596.5 405  Z " fill-rule="nonzero" fill="#ffffff" stroke="none" />
  <path d="M 596.5 405  L 607.5 405  L 607.5 416  L 596.5 416  L 596.5 405  Z " stroke-width="1" stroke="#797979" fill="none" />
  <path d="M 598.571428571429 410.5  L 601.142857142857 413.071428571429  " stroke-width="2.57142857142857" stroke="#797979" fill="none" />
  <path d="M 601.142857142857 413.071428571429  L 605.428571428571 407.071428571429  " stroke-width="2.57142857142857" stroke="#797979" fill="none" />
</svg>