﻿<?xml version="1.0" encoding="utf-8"?>
<svg version="1.1" xmlns:xlink="http://www.w3.org/1999/xlink" width="20px" height="20px" xmlns="http://www.w3.org/2000/svg">
  <g transform="matrix(1 0 0 1 -27 -156 )">
    <path d="M 16.0666666666667 12.5744719834711  L 19.3851851875 9.23636363636364  C 19.8118518541667 8.76620752066116  20.0014814791667 8.10798898760331  19.7644444375 7.49678603305785  C 19.5748148125 6.88558309917355  19.0533333333333 6.46244260330579  18.4844444375 6.41542700413223  L 13.8859259166667 5.71019283057851  C 13.6962962916667 5.6631772107438  13.5540740625 5.56914599173554  13.45925925 5.38108355371901  L 11.3733333333333 1.05564737603306  C 11.0888888958333 0.491460041322313  10.52 0.115335165289256  9.90370370833333 0.115335165289256  C 9.28740741666666 0.115335165289256  8.71851852083333 0.44444444214876  8.43407408333333 1.05564737603306  L 6.3955555625 5.38108355371901  C 6.30074075 5.56914599173554  6.15851852083333 5.71019283057851  5.96888889583333 5.71019283057851  L 1.370370375 6.41542700413223  C 0.754074083333333 6.50945822314049  0.28 6.93259871900827  0.090370375 7.49678603305785  C -0.09925925 8.10798896694215  0.0429629583333333 8.76620752066116  0.469629625 9.23636363636364  L 3.8355555625 12.6214876033058  C 3.97777779166667 12.7625344421488  4.0251851875 12.9505968801653  3.97777777083333 13.1856749380165  L 3.17185185416667 17.9342516115703  C 3.07703704166667 18.5924701652893  3.31407408333333 19.2036730991736  3.88296295833333 19.5797979752066  C 4.4044444375 19.9089072520661  5.02074072916667 19.9559228512397  5.589629625 19.6738291942149  L 9.71407408333333 17.4170798966942  C 9.8562963125 17.323048677686  10.0459259375 17.323048677686  10.1881481458333 17.4170798966942  L 14.3125925833333 19.6738291942149  C 14.549629625 19.8148760330579  14.8340740625 19.8618916322314  15.0711111041667 19.8618916528926  C 15.4029629583333 19.8618916528926  15.7348148125 19.7678604338843  16.01925925 19.5797979752066  C 16.5407407291667 19.2036730991736  16.8251851666667 18.5924701446281  16.6829629583333 17.9342516115703  L 15.8770370416667 13.1386593181818  C 15.829629625 12.9505968801653  15.9244444583333 12.715518822314  16.0666666666667 12.5744719834711  Z " fill-rule="nonzero" fill="#f59a23" stroke="none" transform="matrix(1 0 0 1 27 156 )" />
  </g>
</svg>