﻿<?xml version="1.0" encoding="utf-8"?>
<svg version="1.1" xmlns:xlink="http://www.w3.org/1999/xlink" width="120px" height="30px" xmlns="http://www.w3.org/2000/svg">
  <defs>
    <mask fill="white" id="clip2442">
      <path d="M 0 27  L 0 3  C 0 1.32  0.791999999999996 0  1.8 0  L 88.7540983606563 0  L 118.2 0  C 119.208 0  120 1.32  120 3  L 120 27  C 120 28.68  119.208 30  118.2 30  L 77.5081967213115 30  L 1.8 30  C 0.791999999999996 30  0 28.68  0 27  Z " fill-rule="evenodd" />
    </mask>
  </defs>
  <g transform="matrix(1 0 0 1 -324 -91 )">
    <path d="M 0 27  L 0 3  C 0 1.32  0.791999999999996 0  1.8 0  L 88.7540983606563 0  L 118.2 0  C 119.208 0  120 1.32  120 3  L 120 27  C 120 28.68  119.208 30  118.2 30  L 77.5081967213115 30  L 1.8 30  C 0.791999999999996 30  0 28.68  0 27  Z " fill-rule="nonzero" fill="#ffffff" stroke="none" transform="matrix(1 0 0 1 324 91 )" />
    <path d="M 0 27  L 0 3  C 0 1.32  0.791999999999996 0  1.8 0  L 88.7540983606563 0  L 118.2 0  C 119.208 0  120 1.32  120 3  L 120 27  C 120 28.68  119.208 30  118.2 30  L 77.5081967213115 30  L 1.8 30  C 0.791999999999996 30  0 28.68  0 27  Z " stroke-width="2" stroke="#d7d7d7" fill="none" transform="matrix(1 0 0 1 324 91 )" mask="url(#clip2442)" />
  </g>
</svg>